<svg xmlns="http://www.w3.org/2000/svg" xmlns:xlink="http://www.w3.org/1999/xlink" width="390" height="844" viewBox="0 0 390 844">
  <defs>
    <clipPath id="clip-path">
      <rect id="Rectangle_26" data-name="Rectangle 26" width="390" height="844" transform="translate(-913 317)" fill="#fff" stroke="#707070" stroke-width="1"/>
    </clipPath>
    <linearGradient id="linear-gradient" x1="0.5" x2="0.5" y2="1" gradientUnits="objectBoundingBox">
      <stop offset="0" stop-color="#181743"/>
      <stop offset="1" stop-color="#030091"/>
    </linearGradient>
    <linearGradient id="linear-gradient-2" x1="1" y1="0.084" x2="0.638" y2="0.815" gradientUnits="objectBoundingBox">
      <stop offset="0" stop-color="#181743" stop-opacity="0"/>
      <stop offset="1" stop-color="#254dde" stop-opacity="0.4"/>
    </linearGradient>
    <linearGradient id="linear-gradient-3" x1="1" y1="0.084" x2="0.638" y2="0.815" gradientUnits="objectBoundingBox">
      <stop offset="0" stop-color="#fea64c" stop-opacity="0.149"/>
      <stop offset="0.372" stop-color="#fe1e9a" stop-opacity="0.4"/>
      <stop offset="1" stop-color="#254dde" stop-opacity="0.4"/>
    </linearGradient>
    <linearGradient id="linear-gradient-4" x1="0.514" y1="1" x2="0.517" y2="0.039" gradientUnits="objectBoundingBox">
      <stop offset="0" stop-color="#fff"/>
      <stop offset="1" stop-color="#caebfe" stop-opacity="0"/>
    </linearGradient>
  </defs>
  <g id="Mask_Group_5" data-name="Mask Group 5" transform="translate(913 -317)" clip-path="url(#clip-path)">
    <rect id="Rectangle_24" data-name="Rectangle 24" width="547.907" height="974.058" transform="translate(-1011.141 217.123)" opacity="0.03" fill="url(#linear-gradient)"/>
    <path id="Path_545" data-name="Path 545" d="M529.2.457V0c10.087,0,20.242,8.177,20.242,18.264l18.111,861.584c0,10.087-1.024,28.461-11.11,28.461L1.537,911.961c-10.087,0,0,10.087,0,0V697.517c1.979-243.362,240.274-261.063,383.84-397.689C500.473,190.294,524.724.457,529.2.457Z" transform="translate(-1010.174 277.347)" opacity="0.31" fill="url(#linear-gradient-2)"/>
    <path id="Path_546" data-name="Path 546" d="M635.343-39c127.541,17.655-50.225-21-50.225-21,10.568,0-8.675,75.3-8.675,85.382l16.589,913.027c0,10.087-13.783,0-24.351,0l-554.93-9.132c-10.568,0,0,10.087,0,0,0,0,255.419,42.539,318.128-149.914S118.027,255.047,257.287,64.04C331.407-30.474,507.8-56.652,635.343-39Z" transform="translate(-1029.593 259.582)" opacity="0.31" fill="url(#linear-gradient-3)"/>
    <rect id="Rectangle_25" data-name="Rectangle 25" width="547.907" height="764.026" transform="translate(-460.912 974.185) rotate(180)" opacity="0.9" fill="url(#linear-gradient-4)"/>
  </g>
</svg>
